module gitlab.com/signoz-public/goka

go 1.13

require (
	github.com/Shopify/sarama v1.27.0
	github.com/fsnotify/fsnotify v1.4.9 // indirect
	github.com/go-stack/stack v1.8.0
	github.com/golang/mock v1.4.3
	github.com/golang/protobuf v1.4.2 // indirect
	github.com/google/go-cmp v0.5.1 // indirect
	github.com/gorilla/mux v1.7.3
	github.com/stretchr/testify v1.6.1 // indirect
	github.com/syndtr/goleveldb v1.0.0
	golang.org/x/net v0.0.0-20200707034311-ab3426394381 // indirect
	golang.org/x/sync v0.0.0-20200625203802-6e8e738ad208
	golang.org/x/sys v0.0.0-20200803210538-64077c9b5642 // indirect
	golang.org/x/text v0.3.3 // indirect
	google.golang.org/protobuf v1.25.0 // indirect
	gopkg.in/redis.v5 v5.2.9
	gopkg.in/yaml.v2 v2.3.0
	gopkg.in/yaml.v3 v3.0.0-20200605160147-a5ece683394c // indirect
)
